{
  "updateId": {
      "provider": "Munit",
      "name": "Greenbelt",
      "version": "0.1.0.1"
  },
  "updateType": "microsoft/swupdate:1",
  "installedCriteria": "0.0.0.1",
  "compatibility": [
      {
          "deviceManufacturer": "Munit",
          "deviceModel": "prototype"
      }
  ],
  "files": [
      {
          "filename": "greenbelt-raspberrypi4.swu",
          "sizeInBytes": 125623808,
          "hashes": {
              "sha256": "owfF9Ql56yP4yR++F1D/3W7jwZFZPDGAZd8S0B5PVxI="
          }
      }
  ],
  "createdDateTime": "2021-09-21T08:50:39.005813+00:00",
  "manifestVersion": "2.0"
}
